Proyecto Final Estadística Aplicada: Análisis de Créditos Agrícolas
…
## $ `Do Brasil`  <dbl> 0.00000, 0.00000, 26160.82980, 49710.40465, 19072.10932, …
## $ Familiar     <dbl> 0.000, 0.000, 181406.938, 174872.692, 360390.883, 21888.2…
## $ GNB          <dbl> 2.114443e+04, 1.544775e+02, 2.815374e+05, 2.167905e+05, 2…
## $ `GNB Fusión` <dbl> 0.000, 0.000, 63804.750, 1333822.676, 22841.330, 69706.60…
## $ Interfisa    <dbl> 0.000, 0.000, 126020.852, 59895.787, 151267.099, 8131.164…
## $ Itaú         <dbl> 58558.261, 30154.843, 355901.509, 302600.140, 520482.883,…
## $ Regional     <dbl> 26609.087, 9902.303, 260824.451, 718249.289, 491086.584, …
## $ Río          <dbl> 0.00000, 0.00000, 67891.39181, 115352.88875, 96491.80279,…
## $ Solar        <dbl> 0, 0, 0, 0, 0, 0, 0, 0, 0, 0, 0, 0, 0, 0, 0, 0, 0, 0, 0, …
## $ Sudameris    <dbl> 0.000, 0.000, 14842.418, 335958.450, 49475.478, 69164.690…
## $ UENO         <dbl> 0, 0, 0, 0, 0, 0, 0, 0, 0, 0, 0, 0, 0, 0, 0, 0, 0, 0, 0, …
## $ Visión       <dbl> 0.000, 0.000, 143240.696, 12985.844, 1371500.321, 2629.71…
## $ Zeta         <dbl> 0, 0, 0, 0, 0, 0, 0, 0, 0, 0, 0, 0, 0, 0, 0, 0, 0, 0, 0, …
## $ Moneda       <chr> "MN", "MN", "MN", "MN", "MN", "MN", "MN", "MN", "MN", "MN…
## # A tibble: 3,360 × 23
##    Fecha   `Sector E.`   Atlas Bancop   Basa    BNA     BNF Citibank Continental
##    <chr>   <chr>         <dbl>  <dbl>  <dbl>  <dbl>   <dbl>    <dbl>       <dbl>
##  1 2016/01 ACTIVIDADES… 4.65e4 6.38e1 2.34e3   498. 0             0       34948.
##  2 2016/01 ADMINISTRAC… 4.25e3 2.11e3 0          0  4.21e-1       0       53415.
##  3 2016/01 AGRICULTURA  4.12e4 1.60e4 1.79e4  5423. 6.05e+5       0      206517.
##  4 2016/01 COMERCIO AL… 1.63e5 7.87e4 3.37e5 24779. 1.37e+4  113658.    1014232.
##  5 2016/01 COMERCIO AL… 1.30e5 1.45e4 8.62e4 18894. 3.69e+2       0      614621.
##  6 2016/01 CONSTRUCCION 5.17e4 2.03e3 6.66e4  3028. 0             0      441368.
##  7 2016/01 CONSUMO      3.84e5 2.29e4 9.30e4   919. 1.12e+6    8311.     539433.
##  8 2016/01 GANADERIA    1.85e5 6.16e4 6.42e4 24707. 1.88e+5       0     1032588.
##  9 2016/01 INDUSTRIA    1.62e5 1.86e4 8.47e4 29120. 7.95e+4   25756.     637875.
## 10 2016/01 OTROS        2.76e3 3.65e2 0        215. 1.88e+3       0        9812.
## # ℹ 3,350 more rows
## # ℹ 14 more variables: `Do Brasil` <dbl>, Familiar <dbl>, GNB <dbl>,
## #   `GNB Fusión` <dbl>, Interfisa <dbl>, Itaú <dbl>, Regional <dbl>, Río <dbl>,
## #   Solar <dbl>, Sudameris <dbl>, UENO <dbl>, Visión <dbl>, Zeta <dbl>,
## #   Moneda <chr>
…
# Paso Final: Verificación post-limpieza
message("\nDimensiones y Estructura del dataset FINAL (limpio y largo):")
print(dim(df_final))

## [1] 3209    4

print(glimpse(df_final))

## Rows: 3,209
## Columns: 4
## $ fecha         <date> 2016-01-01, 2016-01-01, 2016-01-01, 2016-01-01, 2016-01…
## $ moneda        <chr> "ME", "ME", "ME", "ME", "ME", "ME", "ME", "ME", "ME", "M…
## $ banco         <chr> "atlas", "bancop", "basa", "bna", "bnf", "citibank", "co…
## $ monto_credito <dbl> 468509.112, 226710.024, 153739.440, 50666.039, 155339.92…
## # A tibble: 3,209 × 4
##    fecha      moneda banco       monto_credito
##    <date>     <chr>  <chr>               <dbl>
##  1 2016-01-01 ME     atlas             468509.
##  2 2016-01-01 ME     bancop            226710.
##  3 2016-01-01 ME     basa              153739.
##  4 2016-01-01 ME     bna                50666.
##  5 2016-01-01 ME     bnf               155340.
##  6 2016-01-01 ME     citibank           13566.
##  7 2016-01-01 ME     continental      2747030.
##  8 2016-01-01 ME     do_brasil         198630.
##  9 2016-01-01 ME     familiar          216035.
## 10 2016-01-01 ME     gnb              3510637.
## # ℹ 3,199 more rows
…
